UART/project 1/3Codes/UART Receiver/dump.vcd
$date
   Tue Jul 27 20:55:49 2021
$end
$version
  P.20131013
$end
$timescale
  1ps
$end
$scope module UART_RX_TB $end
$var wire 1 0 w_RX_Byte [7] $end
$var wire 1 1 w_RX_Byte [6] $end
$var wire 1 2 w_RX_Byte [5] $end
$var wire 1 3 w_RX_Byte [4] $end
$var wire 1 4 w_RX_Byte [3] $end
$var wire 1 5 w_RX_Byte [2] $end
$var wire 1 6 w_RX_Byte [1] $end
$var wire 1 7 w_RX_Byte [0] $end
$var reg 1 ) r_Clock $end
$var reg 1 * r_RX_Serial $end
$scope task UART_WRITE_BYTE $end
$var reg 8 + i_Data [7:0] $end
$var integer 32 , ii $end
$upscope $end
$scope module UART_RX_INST $end
$var wire 1 - i_Clock $end
$var wire 1 . i_RX_Serial $end
$var wire 1 / o_RX_DV $end
$var wire 1 0 o_RX_Byte [7] $end
$var wire 1 1 o_RX_Byte [6] $end
$var wire 1 2 o_RX_Byte [5] $end
$var wire 1 3 o_RX_Byte [4] $end
$var wire 1 4 o_RX_Byte [3] $end
$var wire 1 5 o_RX_Byte [2] $end
$var wire 1 6 o_RX_Byte [1] $end
$var wire 1 7 o_RX_Byte [0] $end
$var reg 8 8 r_Clock_Count [7:0] $end
$var reg 3 9 r_Bit_Index [2:0] $end
$var reg 8 : r_RX_Byte [7:0] $end
$var reg 1 ; r_RX_DV $end
$var reg 3 < r_SM_Main [2:0] $end
$upscope $end
$upscope $end
$enddefinitions $end
#0
$dumpvars
01
00
05
04
03
02
0)
1*
bx +
bx ,
b0 8
b0 9
b0 :
0;
b0 <
1.
0-
0/
07
06
$end
#20000
1)
0*
b110101 +
0.
1-
#40000
0)
0-
#60000
1)
b1 <
1-
#80000
0)
0-
#100000
1)
b1 8
1-
#120000
0)
0-
#140000
1)
b10 8
1-
#160000
0)
0-
#180000
1)
b11 8
1-
#200000
0)
0-
#220000
1)
b100 8
1-
#240000
0)
0-
#260000
1)
b101 8
1-
#280000
0)
0-
#300000
1)
b110 8
1-
#320000
0)
0-
#340000
1)
b111 8
1-
#360000
0)
0-
#380000
1)
b1000 8
1-
#400000
0)
0-
#420000
1)
b1001 8
1-
#440000
0)
0-
#460000
1)
b1010 8
1-
#480000
0)
0-
#500000
1)
b1011 8
1-
#520000
0)
0-
#540000
1)
b1100 8
1-
#560000
0)
0-
#580000
1)
b1101 8
1-
#600000
0)
0-
#620000
1)
b1110 8
1-
#640000
0)
0-
#660000
1)
b1111 8
1-
#680000
0)
0-
#700000
1)
b10000 8
1-
#720000
0)
0-
#740000
1)
b10001 8
1-
#760000
0)
0-
#780000
1)
b10010 8
1-
#800000
0)
0-
#820000
1)
b10011 8
1-
#840000
0)
0-
#860000
1)
b10100 8
1-
#880000
0)
0-
#900000
1)
b10101 8
1-
#920000
0)
0-
#940000
1)
b10110 8
1-
#960000
0)
0-
#980000
1)
b10111 8
1-
#1000000
0)
0-
#1020000
1)
b11000 8
1-
#1040000
0)
0-
#1060000
1)
b11001 8
1-
#1080000
0)
0-
#1100000
1)
b11010 8
1-
#1120000
0)
0-
#1140000
1)
b11011 8
1-
#1160000
0)
0-
#1180000
1)
b11100 8
1-
#1200000
0)
0-
#1220000
1)
b11101 8
1-
#1240000
0)
0-
#1260000
1)
b11110 8
1-
#1280000
0)
0-
#1300000
1)
b11111 8
1-
#1320000
0)
0-
#1340000
1)
b100000 8
1-
#1360000
0)
0-
#1380000
1)
b100001 8
1-
#1400000
0)
0-
#1420000
1)
b100010 8
1-
#1440000
0)
0-
#1460000
1)
b100011 8
1-
#1480000
0)
0-
#1500000
1)
b100100 8
1-
#1520000
0)
0-
#1540000
1)
b100101 8
1-
#1560000
0)
0-
#1580000
1)
b100110 8
1-
#1600000
0)
0-
#1620000
1)
b100111 8
1-
#1640000
0)
0-
#1660000
1)
b101000 8
1-
#1680000
0)
0-
#1700000
1)
b101001 8
1-
#1720000
0)
0-
#1740000
1)
b101010 8
1-
#1760000
0)
0-
#1780000
1)
b101011 8
1-
#1800000
0)
0-
#1820000
1)
b101100 8
1-
#1840000
0)
0-
#1860000
1)
b101101 8
1-
#1880000
0)
0-
#1900000
1)
b101110 8
1-
#1920000
0)
0-
#1940000
1)
b101111 8
1-
#1960000
0)
0-
#1980000
1)
b110000 8
1-
#2000000
0)
0-
#2020000
1)
b110001 8
1-
#2040000
0)
0-
#2060000
1)
b110010 8
1-
#2080000
0)
0-
#2100000
1)
b110011 8
1-
#2120000
0)
0-
#2140000
1)
b110100 8
1-
#2160000
0)
0-
#2180000
1)
b110101 8
1-
#2200000
0)
0-
#2220000
1)
b110110 8
1-
#2240000
0)
0-
#2260000
1)
b110111 8
1-
#2280000
0)
0-
#2300000
1)
b111000 8
1-
#2320000
0)
0-
#2340000
1)
b111001 8
1-
#2360000
0)
0-
#2380000
1)
b111010 8
1-
#2400000
0)
0-
#2420000
1)
b111011 8
1-
#2440000
0)
0-
#2460000
1)
b111100 8
1-
#2480000
0)
0-
#2500000
1)
b111101 8
1-
#2520000
0)
0-
#2540000
1)
b111110 8
1-
#2560000
0)
0-
#2580000
1)
b111111 8
1-
#2600000
0)
0-
#2620000
1)
b1000000 8
1-
#2640000
0)
0-
#2660000
1)
b1000001 8
1-
#2680000
0)
0-
#2700000
1)
b1000010 8
1-
#2720000
0)
0-
#2740000
1)
b1000011 8
1-
#2760000
0)
0-
#2780000
1)
b1000100 8
1-
#2800000
0)
0-
#2820000
1)
b1000101 8
1-
#2840000
0)
0-
#2860000
1)
b1000110 8
1-
#2880000
0)
0-
#2900000
1)
b1000111 8
1-
#2920000
0)
0-
#2940000
1)
b1001000 8
1-
#2960000
0)
0-
#2980000
1)
b1001001 8
1-
#3000000
0)
0-
#3020000
1)
b1001010 8
1-
#3040000
0)
0-
#3060000
1)
b1001011 8
1-
#3080000
0)
0-
#3100000
1)
b1001100 8
1-
#3120000
0)
0-
#3140000
1)
b1001101 8
1-
#3160000
0)
0-
#3180000
1)
b1001110 8
1-
#3200000
0)
0-
#3220000
1)
b1001111 8
1-
#3240000
0)
0-
#3260000
1)
b1010000 8
1-
#3280000
0)
0-
#3300000
1)
b1010001 8
1-
#3320000
0)
0-
#3340000
1)
b1010010 8
1-
#3360000
0)
0-
#3380000
1)
b1010011 8
1-
#3400000
0)
0-
#3420000
1)
b1010100 8
1-
#3440000
0)
0-
#3460000
1)
b1010101 8
1-
#3480000
0)
0-
#3500000
1)
b1010110 8
1-
#3520000
0)
0-
#3540000
1)
b1010111 8
1-
#3560000
0)
0-
#3580000
1)
b1011000 8
1-
#3600000
0)
0-
#3620000
1)
b1011001 8
1-
#3640000
0)
0-
#3660000
1)
b1011010 8
1-
#3680000
0)
0-
#3700000
1)
b1011011 8
1-
#3720000
0)
0-
#3740000
1)
b1011100 8
1-
#3760000
0)
0-
#3780000
1)
b1011101 8
1-
#3800000
0)
0-
#3820000
1)
b1011110 8
1-
#3840000
0)
0-
#3860000
1)
b1011111 8
1-
#3880000
0)
0-
#3900000
1)
b1100000 8
1-
#3920000
0)
0-
#3940000
1)
b1100001 8
1-
#3960000
0)
0-
#3980000
1)
b1100010 8
1-
#4000000
0)
0-
#4020000
1)
b1100011 8
1-
#4040000
0)
0-
#4060000
1)
b1100100 8
1-
#4080000
0)
0-
#4100000
1)
b1100101 8
1-
#4120000
0)
0-
#4140000
1)
b1100110 8
1-
#4160000
0)
0-
#4180000
1)
b1100111 8
1-
#4200000
0)
0-
#4220000
1)
b1101000 8
1-
#4240000
0)
0-
#4260000
1)
b1101001 8
1-
#4280000
0)
0-
#4300000
1)
b1101010 8
1-
#4320000
0)
0-
#4340000
1)
b1101011 8
1-
#4360000
0)
0-
#4380000
1)
b1101100 8
1-
#4400000
0)
0-
#4420000
1)
b0 8
b10 <
1-
#4440000
0)
0-
#4460000
1)
b1 8
1-
#4480000
0)
0-
#4500000
1)
b10 8
1-
#4520000
0)
0-
#4540000
1)
b11 8
1-
#4560000
0)
0-
#4580000
1)
b100 8
1-
#4600000
0)
0-
#4620000
1)
b101 8
1-
#4640000
0)
0-
#4660000
1)
b110 8
1-
#4680000
0)
0-
#4700000
1)
b111 8
1-
#4720000
0)
0-
#4740000
1)
b1000 8
1-
#4760000
0)
0-
#4780000
1)
b1001 8
1-
#4800000
0)
0-
#4820000
1)
b1010 8
1-
#4840000
0)
0-
#4860000
1)
b1011 8
1-
#4880000
0)
0-
#4900000
1)
b1100 8
1-
#4920000
0)
0-
#4940000
1)
b1101 8
1-
#4960000
0)
0-
#4980000
1)
b1110 8
1-
#5000000
0)
0-
#5020000
1)
b1111 8
1-
#5040000
0)
0-
#5060000
1)
b10000 8
1-
#5080000
0)
0-
#5100000
1)
b10001 8
1-
#5120000
0)
0-
#5140000
1)
b10010 8
1-
#5160000
0)
0-
#5180000
1)
b10011 8
1-
#5200000
0)
0-
#5220000
1)
b10100 8
1-
#5240000
0)
0-
#5260000
1)
b10101 8
1-
#5280000
0)
0-
#5300000
1)
b10110 8
1-
#5320000
0)
0-
#5340000
1)
b10111 8
1-
#5360000
0)
0-
#5380000
1)
b11000 8
1-
#5400000
0)
0-
#5420000
1)
b11001 8
1-
#5440000
0)
0-
#5460000
1)
b11010 8
1-
#5480000
0)
0-
#5500000
1)
b11011 8
1-
#5520000
0)
0-
#5540000
1)
b11100 8
1-
#5560000
0)
0-
#5580000
1)
b11101 8
1-
#5600000
0)
0-
#5620000
1)
b11110 8
1-
#5640000
0)
0-
#5660000
1)
b11111 8
1-
#5680000
0)
0-
#5700000
1)
b100000 8
1-
#5720000
0)
0-
#5740000
1)
b100001 8
1-
#5760000
0)
0-
#5780000
1)
b100010 8
1-
#5800000
0)
0-
#5820000
1)
b100011 8
1-
#5840000
0)
0-
#5860000
1)
b100100 8
1-
#5880000
0)
0-
#5900000
1)
b100101 8
1-
#5920000
0)
0-
#5940000
1)
b100110 8
1-
#5960000
0)
0-
#5980000
1)
b100111 8
1-
#6000000
0)
0-
#6020000
1)
b101000 8
1-
#6040000
0)
0-
#6060000
1)
b101001 8
1-
#6080000
0)
0-
#6100000
1)
b101010 8
1-
#6120000
0)
0-
#6140000
1)
b101011 8
1-
#6160000
0)
0-
#6180000
1)
b101100 8
1-
#6200000
0)
0-
#6220000
1)
b101101 8
1-
#6240000
0)
0-
#6260000
1)
b101110 8
1-
#6280000
0)
0-
#6300000
1)
b101111 8
1-
#6320000
0)
0-
#6340000
1)
b110000 8
1-
#6360000
0)
0-
#6380000
1)
b110001 8
1-
#6400000
0)
0-
#6420000
1)
b110010 8
1-
#6440000
0)
0-
#6460000
1)
b110011 8
1-
#6480000
0)
0-
#6500000
1)
b110100 8
1-
#6520000
0)
0-
#6540000
1)
b110101 8
1-
#6560000
0)
0-
#6580000
1)
b110110 8
1-
#6600000
0)
0-
#6620000
1)
b110111 8
1-
#6640000
0)
0-
#6660000
1)
b111000 8
1-
#6680000
0)
0-
#6700000
1)
b111001 8
1-
#6720000
0)
0-
#6740000
1)
b111010 8
1-
#6760000
0)
0-
#6780000
1)
b111011 8
1-
#6800000
0)
0-
#6820000
1)
b111100 8
1-
#6840000
0)
0-
#6860000
1)
b111101 8
1-
#6880000
0)
0-
#6900000
1)
b111110 8
1-
#6920000
0)
0-
#6940000
1)
b111111 8
1-
#6960000
0)
0-
#6980000
1)
b1000000 8
1-
#7000000
0)
0-
#7020000
1)
b1000001 8
1-
#7040000
0)
0-
#7060000
1)
b1000010 8
1-
#7080000
0)
0-
#7100000
1)
b1000011 8
1-
#7120000
0)
0-
#7140000
1)
b1000100 8
1-
#7160000
0)
0-
#7180000
1)
b1000101 8
1-
#7200000
0)
0-
#7220000
1)
b1000110 8
1-
#7240000
0)
0-
#7260000
1)
b1000111 8
1-
#7280000
0)
0-
#7300000
1)
b1001000 8
1-
#7320000
0)
0-
#7340000
1)
b1001001 8
1-
#7360000
0)
0-
#7380000
1)
b1001010 8
1-
#7400000
0)
0-
#7420000
1)
b1001011 8
1-
#7440000
0)
0-
#7460000
1)
b1001100 8
1-
#7480000
0)
0-
#7500000
1)
b1001101 8
1-
#7520000
0)
0-
#7540000
1)
b1001110 8
1-
#7560000
0)
0-
#7580000
1)
b1001111 8
1-
#7600000
0)
0-
#7620000
1)
b1010000 8
1-
#7640000
0)
0-
#7660000
1)
b1010001 8
1-
#7680000
0)
0-
#7700000
1)
b1010010 8
1-
#7720000
0)
0-
#7740000
1)
b1010011 8
1-
#7760000
0)
0-
#7780000
1)
b1010100 8
1-
#7800000
0)
0-
#7820000
1)
b1010101 8
1-
#7840000
0)
0-
#7860000
1)
b1010110 8
1-
#7880000
0)
0-
#7900000
1)
b1010111 8
1-
#7920000
0)
0-
#7940000
1)
b1011000 8
1-
#7960000
0)
0-
#7980000
1)
b1011001 8
1-
#8000000
0)
0-
#8020000
1)
b1011010 8
1-
#8040000
0)
0-
#8060000
1)
b1011011 8
1-
#8080000
0)
0-
#8100000
1)
b1011100 8
1-
#8120000
0)
0-
#8140000
1)
b1011101 8
1-
#8160000
0)
0-
#8180000
1)
b1011110 8
1-
#8200000
0)
0-
#8220000
1)
b1011111 8
1-
#8240000
0)
0-
#8260000
1)
b1100000 8
1-
#8280000
0)
0-
#8300000
1)
b1100001 8
1-
#8320000
0)
0-
#8340000
1)
b1100010 8
1-
#8360000
0)
0-
#8380000
1)
b1100011 8
1-
#8400000
0)
0-
#8420000
1)
b1100100 8
1-
#8440000
0)
0-
#8460000
1)
b1100101 8
1-
#8480000
0)
0-
#8500000
1)
b1100110 8
1-
#8520000
0)
0-
#8540000
1)
b1100111 8
1-
#8560000
0)
0-
#8580000
1)
b1101000 8
1-
#8600000
0)
0-
#8620000
1)
b1101001 8
1-
#8640000
0)
0-
#8660000
1)
b1101010 8
1-
#8680000
0)
0-
#8700000
1)
b1101011 8
1-
#8720000
0)
0-
#8740000
1)
b1101100 8
1-
#8760000
0)
0-
#8780000
1)
b1101101 8
1-
#8800000
0)
0-
#8820000
1)
b1101110 8
1-
#8840000
0)
0-
#8860000
1)
b1101111 8
1-
#8880000
0)
0-
#8900000
1)
b1110000 8
1-
#8920000
0)
0-
#8940000
1)
b1110001 8
1-
#8960000
0)
0-
#8980000
1)
b1110010 8
1-
#9000000
0)
0-
#9020000
1)
b1110011 8
1-
#9040000
0)
0-
#9060000
1)
b1110100 8
1-
#9080000
0)
0-
#9100000
1)
b1110101 8
1-
#9120000
0)
0-
#9140000
1)
b1110110 8
1-
#9160000
0)
0-
#9180000
1)
b1110111 8
1-
#9200000
0)
0-
#9220000
1)
b1111000 8
1-
#9240000
0)
0-
#9260000
1)
b1111001 8
1-
#9280000
0)
0-
#9300000
1)
b1111010 8
1-
#9320000
0)
0-
#9340000
1)
b1111011 8
1-
#9360000
0)
0-
#9380000
1)
b1111100 8
1-
#9400000
0)
0-
#9420000
1)
b1111101 8
1-
#9440000
0)
0-
#9460000
1)
b1111110 8
1-
#9480000
0)
0-
#9500000
1)
b1111111 8
1-
#9520000
0)
0-
#9540000
1)
b10000000 8
1-
#9560000
0)
0-
#9580000
1)
b10000001 8
1-
#9600000
0)
0-
#9620000
1)
1*
b0 ,
b10000010 8
1.
1-
#9640000
0)
0-
#9660000
1)
b10000011 8
1-
#9680000
0)
0-
#9700000
1)
b10000100 8
1-
#9720000
0)
0-
#9740000
1)
b10000101 8
1-
#9760000
0)
0-
#9780000
1)
b10000110 8
1-
#9800000
0)
0-
#9820000
1)
b10000111 8
1-
#9840000
0)
0-
#9860000
1)
b10001000 8
1-
#9880000
0)
0-
#9900000
1)
b10001001 8
1-
#9920000
0)
0-
#9940000
1)
b10001010 8
1-
#9960000
0)
0-
#9980000
1)
b10001011 8
1-
#10000000
0)
0-
#10020000
1)
b10001100 8
1-
#10040000
0)
0-
#10060000
1)
b10001101 8
1-
#10080000
0)
0-
#10100000
1)
b10001110 8
1-
#10120000
0)
0-
#10140000
1)
b10001111 8
1-
#10160000
0)
0-
#10180000
1)
b10010000 8
1-
#10200000
0)
0-
#10220000
1)
b10010001 8
1-
#10240000
0)
0-
#10260000
1)
b10010010 8
1-
#10280000
0)
0-
#10300000
1)
b10010011 8
1-
#10320000
0)
0-
#10340000
1)
b10010100 8
1-
#10360000
0)
0-
#10380000
1)
b10010101 8
1-
#10400000
0)
0-
#10420000
1)
b10010110 8
1-
#10440000
0)
0-
#10460000
1)
b10010111 8
1-
#10480000
0)
0-
#10500000
1)
b10011000 8
1-
#10520000
0)
0-
#10540000
1)
b10011001 8
1-
#10560000
0)
0-
#10580000
1)
b10011010 8
1-
#10600000
0)
0-
#10620000
1)
b10011011 8
1-
#10640000
0)
0-
#10660000
1)
b10011100 8
1-
#10680000
0)
0-
#10700000
1)
b10011101 8
1-
#10720000
0)
0-
#10740000
1)
b10011110 8
1-
#10760000
0)
0-
#10780000
1)
b10011111 8
1-
#10800000
0)
0-
#10820000
1)
b10100000 8
1-
#10840000
0)
0-
#10860000
1)
b10100001 8
1-
#10880000
0)
0-
#10900000
1)
b10100010 8
1-
#10920000
0)
0-
#10940000
1)
b10100011 8
1-
#10960000
0)
0-
#10980000
1)
b10100100 8
1-
#11000000
0)
0-
#11020000
1)
b10100101 8
1-
#11040000
0)
0-
#11060000
1)
b10100110 8
1-
#11080000
0)
0-
#11100000
1)
b10100111 8
1-
#11120000
0)
0-
#11140000
1)
b10101000 8
1-
#11160000
0)
0-
#11180000
1)
b10101001 8
1-
#11200000
0)
0-
#11220000
1)
b10101010 8
1-
#11240000
0)
0-
#11260000
1)
b10101011 8
1-
#11280000
0)
0-
#11300000
1)
b10101100 8
1-
#11320000
0)
0-
#11340000
1)
b10101101 8
1-
#11360000
0)
0-
#11380000
1)
b10101110 8
1-
#11400000
0)
0-
#11420000
1)
b10101111 8
1-
#11440000
0)
0-
#11460000
1)
b10110000 8
1-
#11480000
0)
0-
#11500000
1)
b10110001 8
1-
#11520000
0)
0-
#11540000
1)
b10110010 8
1-
#11560000
0)
0-
#11580000
1)
b10110011 8
1-
#11600000
0)
0-
#11620000
1)
b10110100 8
1-
#11640000
0)
0-
#11660000
1)
b10110101 8
1-
#11680000
0)
0-
#11700000
1)
b10110110 8
1-
#11720000
0)
0-
#11740000
1)
b10110111 8
1-
#11760000
0)
0-
#11780000
1)
b10111000 8
1-
#11800000
0)
0-
#11820000
1)
b10111001 8
1-
#11840000
0)
0-
#11860000
1)
b10111010 8
1-
#11880000
0)
0-
#11900000
1)
b10111011 8
1-
#11920000
0)
0-
#11940000
1)
b10111100 8
1-
#11960000
0)
0-
#11980000
1)
b10111101 8
1-
#12000000
0)
0-
#12020000
1)
b10111110 8
1-
#12040000
0)
0-
#12060000
1)
b10111111 8
1-
#12080000
0)
0-
#12100000
1)
b11000000 8
1-
#12120000
0)
0-
#12140000
1)
b11000001 8
1-
#12160000
0)
0-
#12180000
1)
b11000010 8
1-
#12200000
0)
0-
#12220000
1)
b11000011 8
1-
#12240000
0)
0-
#12260000
1)
b11000100 8
1-
#12280000
0)
0-
#12300000
1)
b11000101 8
1-
#12320000
0)
0-
#12340000
1)
b11000110 8
1-
#12360000
0)
0-
#12380000
1)
b11000111 8
1-
#12400000
0)
0-
#12420000
1)
b11001000 8
1-
#12440000
0)
0-
#12460000
1)
b11001001 8
1-
#12480000
0)
0-
#12500000
1)
b11001010 8
1-
#12520000
0)
0-
#12540000
1)
b11001011 8
1-
#12560000
0)
0-
#12580000
1)
b11001100 8
1-
#12600000
0)
0-
#12620000
1)
b11001101 8
1-
#12640000
0)
0-
#12660000
1)
b11001110 8
1-
#12680000
0)
0-
#12700000
1)
b11001111 8
1-
#12720000
0)
0-
#12740000
1)
b11010000 8
1-
#12760000
0)
0-
#12780000
1)
b11010001 8
1-
#12800000
0)
0-
#12820000
1)
b11010010 8
1-
#12840000
0)
0-
#12860000
1)
b11010011 8
1-
#12880000
0)
0-
#12900000
1)
b11010100 8
1-
#12920000
0)
0-
#12940000
1)
b11010101 8
1-
#12960000
0)
0-
#12980000
1)
b11010110 8
1-
#13000000
0)
0-
#13020000
1)
b11010111 8
1-
#13040000
0)
0-
#13060000
1)
b11011000 8
1-
#13080000
0)
0-
#13100000
1)
b0 8
b1 9
b1 :
1-
17
#13120000
0)
0-
#13140000
1)
b1 8
1-
#13160000
0)
0-
#13180000
1)
b10 8
1-
#13200000
0)
0-
#13220000
1)
b11 8
1-
#13240000
0)
0-
#13260000
1)
b100 8
1-
#13280000
0)
0-
#13300000
1)
b101 8
1-
#13320000
0)
0-
#13340000
1)
b110 8
1-
#13360000
0)
0-
#13380000
1)
b111 8
1-
#13400000
0)
0-
#13420000
1)
b1000 8
1-
#13440000
0)
0-
#13460000
1)
b1001 8
1-
#13480000
0)
0-
#13500000
1)
b1010 8
1-
#13520000
0)
0-
#13540000
1)
b1011 8
1-
#13560000
0)
0-
#13580000
1)
b1100 8
1-
#13600000
0)
0-
#13620000
1)
b1101 8
1-
#13640000
0)
0-
#13660000
1)
b1110 8
1-
#13680000
0)
0-
#13700000
1)
b1111 8
1-
#13720000
0)
0-
#13740000
1)
b10000 8
1-
#13760000
0)
0-
#13780000
1)
b10001 8
1-
#13800000
0)
0-
#13820000
1)
b10010 8
1-
#13840000
0)
0-
#13860000
1)
b10011 8
1-
#13880000
0)
0-
#13900000
1)
b10100 8
1-
#13920000
0)
0-
#13940000
1)
b10101 8
1-
#13960000
0)
0-
#13980000
1)
b10110 8
1-
#14000000
0)
0-
#14020000
1)
b10111 8
1-
#14040000
0)
0-
#14060000
1)
b11000 8
1-
#14080000
0)
0-
#14100000
1)
b11001 8
1-
#14120000
0)
0-
#14140000
1)
b11010 8
1-
#14160000
0)
0-
#14180000
1)
b11011 8
1-
#14200000
0)
0-
#14220000
1)
b11100 8
1-
#14240000
0)
0-
#14260000
1)
b11101 8
1-
#14280000
0)
0-
#14300000
1)
b11110 8
1-
#14320000
0)
0-
#14340000
1)
b11111 8
1-
#14360000
0)
0-
#14380000
1)
b100000 8
1-
#14400000
0)
0-
#14420000
1)
b100001 8
1-
#14440000
0)
0-
#14460000
1)
b100010 8
1-
#14480000
0)
0-
#14500000
1)
b100011 8
1-
#14520000
0)
0-
#14540000
1)
b100100 8
1-
#14560000
0)
0-
#14580000
1)
b100101 8
1-
#14600000
0)
0-
#14620000
1)
b100110 8
1-
#14640000
0)
0-
#14660000
1)
b100111 8
1-
#14680000
0)
0-
#14700000
1)
b101000 8
1-
#14720000
0)
0-
#14740000
1)
b101001 8
1-
#14760000
0)
0-
#14780000
1)
b101010 8
1-
#14800000
0)
0-
#14820000
1)
b101011 8
1-
#14840000
0)
0-
#14860000
1)
b101100 8
1-
#14880000
0)
0-
#14900000
1)
b101101 8
1-
#14920000
0)
0-
#14940000
1)
b101110 8
1-
#14960000
0)
0-
#14980000
1)
b101111 8
1-
#15000000
0)
0-
#15020000
1)
b110000 8
1-
#15040000
0)
0-
#15060000
1)
b110001 8
1-
#15080000
0)
0-
#15100000
1)
b110010 8
1-
#15120000
0)
0-
#15140000
1)
b110011 8
1-
#15160000
0)
0-
#15180000
1)
b110100 8
1-
#15200000
0)
0-
#15220000
1)
b110101 8
1-
#15240000
0)
0-
#15260000
1)
b110110 8
1-
#15280000
0)
0-
#15300000
1)
b110111 8
1-
#15320000
0)
0-
#15340000
1)
b111000 8
1-
#15360000
0)
0-
#15380000
1)
b111001 8
1-
#15400000
0)
0-
#15420000
1)
b111010 8
1-
#15440000
0)
0-
#15460000
1)
b111011 8
1-
#15480000
0)
0-
#15500000
1)
b111100 8
1-
#15520000
0)
0-
#15540000
1)
b111101 8
1-
#15560000
0)
0-
#15580000
1)
b111110 8
1-
#15600000
0)
0-
#15620000
1)
b111111 8
1-
#15640000
0)
0-
#15660000
1)
b1000000 8
1-
#15680000
0)
0-
#15700000
1)
b1000001 8
1-
#15720000
0)
0-
#15740000
1)
b1000010 8
1-
#15760000
0)
0-
#15780000
1)
b1000011 8
1-
#15800000
0)
0-
#15820000
1)
b1000100 8
1-
#15840000
0)
0-
#15860000
1)
b1000101 8
1-
#15880000
0)
0-
#15900000
1)
b1000110 8
1-
#15920000
0)
0-
#15940000
1)
b1000111 8
1-
#15960000
0)
0-
#15980000
1)
b1001000 8
1-
#16000000
0)
0-
#16020000
1)
b1001001 8
1-
#16040000
0)
0-
#16060000
1)
b1001010 8
1-
#16080000
0)
0-
#16100000
1)
b1001011 8
1-
#16120000
0)
0-
#16140000
1)
b1001100 8
1-
#16160000
0)
0-
#16180000
1)
b1001101 8
1-
#16200000
0)
0-
#16220000
1)
b1001110 8
1-
#16240000
0)
0-
#16260000
1)
b1001111 8
1-
#16280000
0)
0-
#16300000
1)
b1010000 8
1-
#16320000
0)
0-
#16340000
1)
b1010001 8
1-
#16360000
0)
0-
#16380000
1)
b1010010 8
1-
#16400000
0)
0-
#16420000
1)
b1010011 8
1-
#16440000
0)
0-
#16460000
1)
b1010100 8
1-
#16480000
0)
0-
#16500000
1)
b1010101 8
1-
#16520000
0)
0-
#16540000
1)
b1010110 8
1-
#16560000
0)
0-
#16580000
1)
b1010111 8
1-
#16600000
0)
0-
#16620000
1)
b1011000 8
1-
#16640000
0)
0-
#16660000
1)
b1011001 8
1-
#16680000
0)
0-
#16700000
1)
b1011010 8
1-
#16720000
0)
0-
#16740000
1)
b1011011 8
1-
#16760000
0)
0-
#16780000
1)
b1011100 8
1-
#16800000
0)
0-
#16820000
1)
b1011101 8
1-
#16840000
0)
0-
#16860000
1)
b1011110 8
1-
#16880000
0)
0-
#16900000
1)
b1011111 8
1-
#16920000
0)
0-
#16940000
1)
b1100000 8
1-
#16960000
0)
0-
#16980000
1)
b1100001 8
1-
#17000000
0)
0-
#17020000
1)
b1100010 8
1-
#17040000
0)
0-
#17060000
1)
b1100011 8
1-
#17080000
0)
0-
#17100000
1)
b1100100 8
1-
#17120000
0)
0-
#17140000
1)
b1100101 8
1-
#17160000
0)
0-
#17180000
1)
b1100110 8
1-
#17200000
0)
0-
#17220000
1)
b1100111 8
1-
#17240000
0)
0-
#17260000
1)
b1101000 8
1-
#17280000
0)
0-
#17300000
1)
b1101001 8
1-
#17320000
0)
0-
#17340000
1)
b1101010 8
1-
#17360000
0)
0-
#17380000
1)
b1101011 8
1-
#17400000
0)
0-
#17420000
1)
b1101100 8
1-
#17440000
0)
0-
#17460000
1)
b1101101 8
1-
#17480000
0)
0-
#17500000
1)
b1101110 8
1-
#17520000
0)
0-
#17540000
1)
b1101111 8
1-
#17560000
0)
0-
#17580000
1)
b1110000 8
1-
#17600000
0)
0-
#17620000
1)
b1110001 8
1-
#17640000
0)
0-
#17660000
1)
b1110010 8
1-
#17680000
0)
0-
#17700000
1)
b1110011 8
1-
#17720000
0)
0-
#17740000
1)
b1110100 8
1-
#17760000
0)
0-
#17780000
1)
b1110101 8
1-
#17800000
0)
0-
#17820000
1)
b1110110 8
1-
#17840000
0)
0-
#17860000
1)
b1110111 8
1-
#17880000
0)
0-
#17900000
1)
b1111000 8
1-
#17920000
0)
0-
#17940000
1)
b1111001 8
1-
#17960000
0)
0-
#17980000
1)
b1111010 8
1-
#18000000
0)
0-
#18020000
1)
b1111011 8
1-
#18040000
0)
0-
#18060000
1)
b1111100 8
1-
#18080000
0)
0-
#18100000
1)
b1111101 8
1-
#18120000
0)
0-
#18140000
1)
b1111110 8
1-
#18160000
0)
0-
#18180000
1)
b1111111 8
1-
#18200000
0)
0-
#18220000
1)
0*
b1 ,
b10000000 8
0.
1-
#18240000
0)
0-
#18260000
1)
b10000001 8
1-
#18280000
0)
0-
#18300000
1)
b10000010 8
1-
#18320000
0)
0-
#18340000
1)
b10000011 8
1-
#18360000
0)
0-
#18380000
1)
b10000100 8
1-
#18400000
0)
0-
#18420000
1)
b10000101 8
1-
#18440000
0)
0-
#18460000
1)
b10000110 8
1-
#18480000
0)
0-
#18500000
1)
b10000111 8
1-
#18520000
0)
0-
#18540000
1)
b10001000 8
1-
#18560000
0)
0-
#18580000
1)
b10001001 8
1-
#18600000
0)
0-
#18620000
1)
b10001010 8
1-
#18640000
0)
0-
#18660000
1)
b10001011 8
1-
#18680000
0)
0-
#18700000
1)
b10001100 8
1-
#18720000
0)
0-
#18740000
1)
b10001101 8
1-
#18760000
0)
0-
#18780000
1)
b10001110 8
1-
#18800000
0)
0-
#18820000
1)
b10001111 8
1-
#18840000
0)
0-
#18860000
1)
b10010000 8
1-
#18880000
0)
0-
#18900000
1)
b10010001 8
1-
#18920000
0)
0-
#18940000
1)
b10010010 8
1-
#18960000
0)
0-
#18980000
1)
b10010011 8
1-
#19000000
0)
0-
#19020000
1)
b10010100 8
1-
#19040000
0)
0-
#19060000
1)
b10010101 8
1-
#19080000
0)
0-
#19100000
1)
b10010110 8
1-
#19120000
0)
0-
#19140000
1)
b10010111 8
1-
#19160000
0)
0-
#19180000
1)
b10011000 8
1-
#19200000
0)
0-
#19220000
1)
b10011001 8
1-
#19240000
0)
0-
#19260000
1)
b10011010 8
1-
#19280000
0)
0-
#19300000
1)
b10011011 8
1-
#19320000
0)
0-
#19340000
1)
b10011100 8
1-
#19360000
0)
0-
#19380000
1)
b10011101 8
1-
#19400000
0)
0-
#19420000
1)
b10011110 8
1-
#19440000
0)
0-
#19460000
1)
b10011111 8
1-
#19480000
0)
0-
#19500000
1)
b10100000 8
1-
#19520000
0)
0-
#19540000
1)
b10100001 8
1-
#19560000
0)
0-
#19580000
1)
b10100010 8
1-
#19600000
0)
0-
#19620000
1)
b10100011 8
1-
#19640000
0)
0-
#19660000
1)
b10100100 8
1-
#19680000
0)
0-
#19700000
1)
b10100101 8
1-
#19720000
0)
0-
#19740000
1)
b10100110 8
1-
#19760000
0)
0-
#19780000
1)
b10100111 8
1-
#19800000
0)
0-
#19820000
1)
b10101000 8
1-
